…
### List of PPI country tables

[TABLE]

This list of available PPI country tables can be retrieved in R using
the
[`find_table()`](https://katilingban.io/ppitables/dev/reference/find_table.md)
function. View the complete list using the following command in R:

``` r
find_table()
#> # A tibble: 116 × 7
#>    region            country survey_year release_year description type  filename
#>    <chr>             <chr>         <int>        <int> <chr>       <chr> <chr>   
#>  1 Asia              Afghan…        2007         2012 PPI for Af… sps   ppiAFG2…
#>  2 Africa            Angola         2008         2015 PPI for An… sps   ppiAGO2…
#>  3 Asia              Bangla…        2010         2013 PPI for Ba… sps   ppiBEN2…
#>  4 Africa            Benin          2010         2012 PPI for Be… sps   ppiBGD2…
#>  5 Africa            Benin          2018         2022 PPI for Be… ipa   ppiBEN2…
#>  6 Africa            Benin          2018         2022 PPI for Be… ipa   ppiBEN2…
#>  7 Latin American a… Bolivia        2013         2015 PPI for Bo… sps   ppiBOL2…
#>  8 Latin American a… Bolivia        2020         2023 PPI for Bo… ipa   ppiBOL2…
#>  9 Latin American a… Brazil         2008         2010 PPI for Br… sps   ppiBRA2…
#> 10 Africa            Burkin…        2003         2011 PPI for Bu… sps   ppiBFA2…
#> # ℹ 106 more rows
```

View the list of PPI country tables for Africa using the following
command in R:

``` r
find_table(region = "Africa")
#> # A tibble: 50 × 7
#>    region country       survey_year release_year description      type  filename
#>    <chr>  <chr>               <int>        <int> <chr>            <chr> <chr>   
#>  1 Africa Angola               2008         2015 PPI for Angola … sps   ppiAGO2…
#>  2 Africa Benin                2010         2012 PPI for Benin b… sps   ppiBGD2…
#>  3 Africa Benin                2018         2022 PPI for Benin b… ipa   ppiBEN2…
#>  4 Africa Benin                2018         2022 PPI for Benin b… ipa   ppiBEN2…
#>  5 Africa Burkina Faso         2003         2011 PPI for Burkina… sps   ppiBFA2…
#>  6 Africa Burkina Faso         2014         2017 PPI for Burkina… sps   ppiBFA2…
#>  7 Africa Burkina Faso         2014         2017 PPI for Burkina… ipa   ppiBFA2…
#>  8 Africa Burkina Faso         2018         2023 PPI for Burkina… ipa   ppiBFA2…
#>  9 Africa Cameroon             2007         2013 PPI for Cameroo… sps   ppiCMR2…
#> 10 Africa Cote d'Ivoire        2008         2013 PPI for Ivory C… sps   ppiCIV2…
#> # ℹ 40 more rows
```
…
To extract the actual PPI tables, the
[`get_table()`](https://katilingban.io/ppitables/dev/reference/get_table.md)
function can be used. The
[`get_table()`](https://katilingban.io/ppitables/dev/reference/get_table.md)
function wraps around the
[`find_table()`](https://katilingban.io/ppitables/dev/reference/find_table.md)
function to make a search for a specific PPI table and then extracts the
table/s and puts them together into a tidy data frame.

For example, to get the actual PPI tables for all countries with PPI
tables, the following command can be used in R:

``` r
get_table()
#> # A tibble: 124,467 × 7
#>    country     release_year filename   type  score poverty_definition   ppi
#>    <chr>       <chr>        <chr>      <chr> <dbl> <chr>              <dbl>
#>  1 Afghanistan 2012         ppiAFG2012 sps       0 nl                   100
#>  2 Afghanistan 2012         ppiAFG2012 sps       0 nu150                100
#>  3 Afghanistan 2012         ppiAFG2012 sps       0 nu200                100
#>  4 Afghanistan 2012         ppiAFG2012 sps       0 extreme              100
#>  5 Afghanistan 2012         ppiAFG2012 sps       0 ppp125               100
#>  6 Afghanistan 2012         ppiAFG2012 sps       0 ppp250               100
#>  7 Afghanistan 2012         ppiAFG2012 sps       1 nl                   100
#>  8 Afghanistan 2012         ppiAFG2012 sps       1 nu150                100
#>  9 Afghanistan 2012         ppiAFG2012 sps       1 nu200                100
#> 10 Afghanistan 2012         ppiAFG2012 sps       1 extreme              100
#> # ℹ 124,457 more rows
```

To get the actual PPI tables for all countries with PPI tables in
Africa, the following command can be used in R:

``` r
get_table(region = "Africa")
#> # A tibble: 57,927 × 7
#>    country release_year filename   type  score poverty_definition   ppi
#>    <chr>   <chr>        <chr>      <chr> <dbl> <chr>              <dbl>
#>  1 Angola  2015         ppiAGO2015 sps       0 nl100              100  
#>  2 Angola  2015         ppiAGO2015 sps       0 nl150              100  
#>  3 Angola  2015         ppiAGO2015 sps       0 nl200              100  
#>  4 Angola  2015         ppiAGO2015 sps       0 half100             86.5
#>  5 Angola  2015         ppiAGO2015 sps       0 ppp125             100  
#>  6 Angola  2015         ppiAGO2015 sps       0 ppp200             100  
#>  7 Angola  2015         ppiAGO2015 sps       0 ppp250             100  
#>  8 Angola  2015         ppiAGO2015 sps       0 ppp500             100  
#>  9 Angola  2015         ppiAGO2015 sps       1 nl100              100  
#> 10 Angola  2015         ppiAGO2015 sps       1 nl150              100  
#> # ℹ 57,917 more rows
```
…
