…
- `percentile80`:

  Below 80th percentile poverty line

## Source

<https://www.povertyindex.org>

## Examples

``` r
  # Access Colombia PPI table
  ppiCOL2024
#> # A tibble: 101 × 15
#>    score nl100 nl_extreme nl150 nl200 ppp215 ppp365 ppp685 ppp190 ppp320 ppp550
#>    <dbl> <dbl>      <dbl> <dbl> <dbl>  <dbl>  <dbl>  <dbl>  <dbl>  <dbl>  <dbl>
#>  1     0  98.6       93.4  99.7  99.9   88.9   94.3   99.5   86.6   93.9   99.0
#>  2     1  98.5       92.8  99.7  99.9   88.0   93.8   99.4   85.6   93.4   98.9
#>  3     2  98.4       92.2  99.7  99.9   87.1   93.3   99.3   84.6   92.8   98.8
#>  4     3  98.2       91.6  99.6  99.9   86.1   92.7   99.3   83.5   92.2   98.6
#>  5     4  98.1       90.9  99.6  99.8   85.0   92.0   99.2   82.3   91.5   98.5
#>  6     5  97.9       90.2  99.6  99.8   83.9   91.3   99.1   81.1   90.8   98.3
#>  7     6  97.7       89.4  99.5  99.8   82.7   90.6   99.0   79.8   90.0   98.2
#>  8     7  97.5       88.5  99.5  99.8   81.5   89.7   98.9   78.5   89.1   98.0
#>  9     8  97.3       87.6  99.4  99.8   80.2   88.9   98.8   77.0   88.2   97.8
#> 10     9  97.0       86.6  99.3  99.7   78.8   87.9   98.7   75.6   87.2   97.6
#> # ℹ 91 more rows
#> # ℹ 4 more variables: percentile20 <dbl>, percentile40 <dbl>,
#> #   percentile60 <dbl>, percentile80 <dbl>
…
