…
- `percentile80`:

  Below 80th percentile poverty line

## Source

<https://www.povertyindex.org>

## Examples

``` r
  # Access Ethiopia PPI table
  ppiETH2023
#> # A tibble: 101 × 20
#>    score nl100 nl_extreme nl150 nl200 ppp100 ppp190 ppp320 ppp550 ppp800 ppp1100
#>    <dbl> <dbl>      <dbl> <dbl> <dbl>  <dbl>  <dbl>  <dbl>  <dbl>  <dbl>   <dbl>
#>  1     0  79.4       45.5  88.1  95.0   53.6   81.5   95.2   98.7   99.5    99.6
#>  2     1  78.2       43.3  87.4  94.7   51.7   80.4   94.9   98.7   99.5    99.6
#>  3     2  76.8       41.1  86.7  94.4   49.7   79.3   94.6   98.6   99.5    99.6
#>  4     3  75.4       39.0  85.9  94.0   47.7   78.1   94.3   98.5   99.4    99.6
#>  5     4  73.9       36.9  85.1  93.7   45.7   76.9   93.9   98.4   99.4    99.6
#>  6     5  72.4       34.8  84.3  93.3   43.7   75.7   93.5   98.4   99.4    99.5
#>  7     6  70.8       32.8  83.4  92.9   41.8   74.4   93.2   98.3   99.3    99.5
#>  8     7  69.2       30.9  82.5  92.5   39.9   73.0   92.7   98.2   99.3    99.5
#>  9     8  67.5       29.0  81.6  92.0   38.0   71.6   92.3   98.1   99.3    99.5
#> 10     9  65.8       27.2  80.6  91.6   36.1   70.2   91.8   98.0   99.2    99.4
#> # ℹ 91 more rows
#> # ℹ 9 more variables: ppp1500 <dbl>, ppp2170 <dbl>, ppp125 <dbl>, ppp250 <dbl>,
#> #   ppp500 <dbl>, percentile20 <dbl>, percentile40 <dbl>, percentile60 <dbl>,
#> #   percentile80 <dbl>
…
