…
- `percentile80`:

  Below 80th percentile poverty line

## Source

<https://www.povertyindex.org>

## Examples

``` r
  # Access Cambodia PPI table
  ppiKHM2023
#> # A tibble: 101 × 14
#>    score nl100 nl150 nl200 ppp550 ppp800 ppp1100 ppp1500 ppp2170 ppp685
#>    <dbl> <dbl> <dbl> <dbl>  <dbl>  <dbl>   <dbl>   <dbl>   <dbl>  <dbl>
#>  1     0  91.0  95.2  98.1   90.6   93.1    97.6    99.2    99.9   91.3
#>  2     1  90.2  94.8  97.9   89.7   92.6    97.4    99.1    99.9   90.4
#>  3     2  89.2  94.4  97.7   88.7   92.0    97.2    99.0    99.9   89.4
#>  4     3  88.1  93.9  97.6   87.7   91.4    96.9    98.9    99.8   88.4
#>  5     4  87.0  93.3  97.3   86.6   90.7    96.7    98.9    99.8   87.3
#>  6     5  85.8  92.8  97.1   85.4   90.0    96.4    98.8    99.8   86.0
#>  7     6  84.4  92.2  96.9   84.1   89.2    96.1    98.7    99.8   84.7
#>  8     7  83.0  91.5  96.6   82.7   88.4    95.8    98.6    99.8   83.3
#>  9     8  81.5  90.8  96.4   81.2   87.5    95.5    98.4    99.8   81.8
#> 10     9  79.8  90.0  96.1   79.7   86.5    95.1    98.3    99.7   80.2
#> # ℹ 91 more rows
#> # ℹ 4 more variables: percentile20 <dbl>, percentile40 <dbl>,
#> #   percentile60 <dbl>, percentile80 <dbl>
…
