…
- `percentile80`:

  Below 80th percentile poverty line

## Source

<https://www.povertyindex.org>

## Examples

``` r
  # Access Kenya PPI table
  ppiKEN2024
#> # A tibble: 101 × 13
#>    score nlFood nlAbsolute ppp190 ppp320 ppp550 ppp215 ppp365 ppp685
#>    <dbl>  <dbl>      <dbl>  <dbl>  <dbl>  <dbl>  <dbl>  <dbl>  <dbl>
#>  1     0   81.9       88.4   94.7   98.8   99.8   93.1   98.5   99.8
#>  2     1   81.1       87.8   94.3   98.7   99.8   92.5   98.4   99.8
#>  3     2   80.2       87.1   93.8   98.6   99.8   92.0   98.3   99.8
#>  4     3   79.4       86.4   93.4   98.5   99.8   91.4   98.2   99.8
#>  5     4   78.5       85.7   92.9   98.4   99.7   90.7   98.0   99.8
#>  6     5   77.6       85.0   92.4   98.3   99.7   90.0   97.9   99.7
#>  7     6   76.6       84.2   91.8   98.1   99.7   89.3   97.8   99.7
#>  8     7   75.6       83.4   91.3   98.0   99.7   88.5   97.6   99.7
#>  9     8   74.6       82.5   90.6   97.9   99.7   87.7   97.4   99.7
#> 10     9   73.6       81.6   90.0   97.7   99.7   86.8   97.2   99.7
#> # ℹ 91 more rows
#> # ℹ 4 more variables: percentile20 <dbl>, percentile40 <dbl>,
#> #   percentile60 <dbl>, percentile80 <dbl>
…
