…
- `percentile80_wi_ur`:

  Below 80th percentile wealth index urban/rural

## Source

<https://www.povertyindex.org>

## Examples

``` r
  # Access Papua New Guinea PPI table
  ppiPNG2023
#> # A tibble: 101 × 9
#>    score percentile20_wi percentile40_wi percentile60_wi percentile80_wi
#>    <dbl>           <dbl>           <dbl>           <dbl>           <dbl>
#>  1     0            93.5            99.5            99.9           100.0
#>  2     1            90.8            99.3            99.9           100.0
#>  3     2            87.2            99.0            99.9           100.0
#>  4     3            82.3            98.7            99.9           100.0
#>  5     4            76.1            98.1            99.9           100.0
#>  6     5            68.6            97.4            99.8           100.0
#>  7     6            60.0            96.3            99.8           100.0
#>  8     7            50.7            94.9            99.8           100.0
#>  9     8            41.3            93.0            99.7           100.0
#> 10     9            32.6            90.4            99.7           100.0
#> # ℹ 91 more rows
#> # ℹ 4 more variables: percentile20_wi_ur <dbl>, percentile40_wi_ur <dbl>,
#> #   percentile60_wi_ur <dbl>, percentile80_wi_ur <dbl>
…
