Poverty Probability Index (PPI) lookup table for Vietnam for 2023 — ppiVNM2023 • ppitables
…
percentile60
Below 60th percentile poverty line

percentile80
Below 80th percentile poverty line

    Source

    https://www.povertyindex.org

    Examples

  # Access Vietnam PPI table
  ppiVNM2023
#> # A tibble: 101 × 5
#>    score percentile20 percentile40 percentile60 percentile80
#>    <dbl>        <dbl>        <dbl>        <dbl>        <dbl>
#>  1     0         100.         100.         100.         100.
#>  2     1         100.         100.         100.         100.
#>  3     2         100.         100.         100.         100.
#>  4     3         100.         100.         100.         100.
#>  5     4         100.         100.         100.         100.
#>  6     5         100.         100.         100.         100.
#>  7     6         100.         100.         100.         100.
#>  8     7         100.         100.         100.         100.
#>  9     8         100.         100.         100.         100.
#> 10     9         100.         100.         100.         100.
#> # ℹ 91 more rows
…
