…
## Value

A data frame in `tibble` format of corresponding PPI table/s matching
the search parameters. The data frame is in `tidy` format and contains
the corresponding poverty probability (`ppi`) for a specific score
(`score`) for various poverty definitions) for the country (`country`)
and PPI calculation type (`type`).

## Examples

``` r
## Create a tidy format PPI table for Nepal
get_table(region = "Asia", country = "Nepal")
#> # A tibble: 1,111 × 7
#>    country release_year filename   type  score poverty_definition   ppi
#>    <chr>   <chr>        <chr>      <chr> <int> <chr>              <dbl>
#>  1 Nepal   2013         ppiNPL2013 sps       0 nl100                100
#>  2 Nepal   2013         ppiNPL2013 sps       0 ppp125               100
#>  3 Nepal   2013         ppiNPL2013 sps       0 ppp250               100
#>  4 Nepal   2013         ppiNPL2013 sps       1 nl100                100
#>  5 Nepal   2013         ppiNPL2013 sps       1 ppp125               100
#>  6 Nepal   2013         ppiNPL2013 sps       1 ppp250               100
#>  7 Nepal   2013         ppiNPL2013 sps       2 nl100                100
#>  8 Nepal   2013         ppiNPL2013 sps       2 ppp125               100
#>  9 Nepal   2013         ppiNPL2013 sps       2 ppp250               100
#> 10 Nepal   2013         ppiNPL2013 sps       3 nl100                100
#> # ℹ 1,101 more rows
```
