…
- `percentile80`:

  Below 80th percentile poverty line

## Source

<https://www.povertyindex.org>

## Examples

``` r
  # Access Benin PPI table
  ppiBEN2022_11q
#> # A tibble: 101 × 14
#>    score nl100 nl150 nl200 ppp190 ppp320 ppp550 ppp215 ppp365 ppp685
#>    <dbl> <dbl> <dbl> <dbl>  <dbl>  <dbl>  <dbl>  <dbl>  <dbl>  <dbl>
#>  1     0  92.3  97.7  99.3   70.9   94.7   99.2   71.7   95.4   99.6
#>  2     1  91.6  97.6  99.3   69.0   94.2   99.1   69.9   95.0   99.6
#>  3     2  90.9  97.4  99.2   67.0   93.7   99.0   68.0   94.6   99.6
#>  4     3  90.1  97.2  99.1   65.0   93.2   98.9   66.0   94.1   99.5
#>  5     4  89.3  96.9  99.0   62.9   92.6   98.8   63.9   93.6   99.5
#>  6     5  88.4  96.7  99.0   60.8   92.0   98.8   61.8   93.1   99.4
#>  7     6  87.4  96.4  98.9   58.6   91.3   98.6   59.7   92.5   99.4
#>  8     7  86.4  96.2  98.8   56.3   90.6   98.5   57.5   91.9   99.3
#>  9     8  85.3  95.9  98.7   54.1   89.9   98.4   55.3   91.2   99.2
#> 10     9  84.1  95.5  98.6   51.8   89.0   98.3   53.1   90.5   99.2
#> # ℹ 91 more rows
#> # ℹ 4 more variables: percentile20 <dbl>, percentile40 <dbl>,
#> #   percentile60 <dbl>, percentile80 <dbl>
…
