…
- `percentile80`:

  Below 80th percentile poverty line

## Source

<https://www.povertyindex.org>

## Examples

``` r
  # Access Burkina Faso PPI table
  ppiBFA2023
#> # A tibble: 101 × 14
#>    score nl100 nl150 nl200 ppp215 ppp365 ppp685 ppp190 ppp320 ppp550
#>    <dbl> <dbl> <dbl> <dbl>  <dbl>  <dbl>  <dbl>  <dbl>  <dbl>  <dbl>
#>  1     0  91.0  98.4  99.7   86.8   98.4   99.9   89.7   98.8   99.9
#>  2     1  90.1  98.3  99.7   85.4   98.3   99.9   88.6   98.7   99.9
#>  3     2  89.2  98.1  99.7   83.9   98.0   99.9   87.4   98.5   99.9
#>  4     3  88.1  97.9  99.6   82.3   97.8   99.9   86.1   98.3   99.9
#>  5     4  87.0  97.6  99.6   80.5   97.5   99.9   84.6   98.1   99.9
#>  6     5  85.8  97.4  99.5   78.6   97.3   99.9   83.1   97.9   99.9
#>  7     6  84.6  97.1  99.5   76.6   96.9   99.9   81.4   97.6   99.8
#>  8     7  83.2  96.8  99.4   74.5   96.6   99.9   79.6   97.3   99.8
#>  9     8  81.7  96.4  99.4   72.2   96.2   99.8   77.7   97.0   99.8
#> 10     9  80.1  96.1  99.3   69.8   95.7   99.8   75.6   96.6   99.8
#> # ℹ 91 more rows
#> # ℹ 4 more variables: percentile20 <dbl>, percentile40 <dbl>,
#> #   percentile60 <dbl>, percentile80 <dbl>
…
