…
- `percentile80`:

  Below 80th percentile poverty line

## Source

<https://www.povertyindex.org>

## Examples

``` r
  # Access Dominican Republic PPI table
  ppiDOM2024
#> # A tibble: 101 × 9
#>    score nl100 nl150 nl200 ppp685 percentile20 percentile40 percentile60
#>    <dbl> <dbl> <dbl> <dbl>  <dbl>        <dbl>        <dbl>        <dbl>
#>  1     0  88.1  95.3  98.3   78.0         88.3         91.9         98.5
#>  2     1  87.3  95.0  98.1   76.6         87.5         91.4         98.4
#>  3     2  86.4  94.7  98.0   75.0         86.5         90.9         98.2
#>  4     3  85.5  94.3  97.9   73.4         85.5         90.4         98.1
#>  5     4  84.5  93.9  97.7   71.8         84.5         89.9         98.0
#>  6     5  83.5  93.5  97.6   70.0         83.4         89.3         97.8
#>  7     6  82.4  93.1  97.4   68.3         82.2         88.7         97.6
#>  8     7  81.2  92.6  97.2   66.4         80.9         88.1         97.5
#>  9     8  80.0  92.2  97.0   64.5         79.6         87.4         97.3
#> 10     9  78.7  91.6  96.8   62.6         78.2         86.7         97.1
#> # ℹ 91 more rows
#> # ℹ 1 more variable: percentile80 <dbl>
…
