…
- `percentile80`:

  Below 80th percentile poverty line

## Source

<https://www.povertyindex.org>

## Examples

``` r
  # Access Honduras PPI table
  ppiHND2023
#> # A tibble: 101 × 18
#>    score nl100 nl_extreme ppp100 ppp190 ppp320 ppp550 ppp800 ppp1100 ppp1500
#>    <dbl> <dbl>      <dbl>  <dbl>  <dbl>  <dbl>  <dbl>  <dbl>   <dbl>   <dbl>
#>  1     0  88.7       68.4   32.2   56.5   82.8   94.8   96.7    99.0    99.6
#>  2     1  88.3       67.4   31.1   55.2   81.9   94.5   96.5    99.0    99.6
#>  3     2  87.9       66.4   30.1   53.8   81.0   94.1   96.3    98.9    99.6
#>  4     3  87.4       65.4   29.1   52.5   80.1   93.8   96.0    98.8    99.5
#>  5     4  86.9       64.4   28.1   51.2   79.2   93.4   95.8    98.7    99.5
#>  6     5  86.4       63.3   27.2   49.9   78.2   93.0   95.5    98.6    99.5
#>  7     6  85.9       62.3   26.2   48.6   77.2   92.5   95.3    98.5    99.4
#>  8     7  85.4       61.2   25.3   47.2   76.1   92.1   95.0    98.4    99.4
#>  9     8  84.8       60.1   24.4   45.9   75.0   91.6   94.7    98.3    99.3
#> 10     9  84.3       59.0   23.6   44.6   73.9   91.1   94.3    98.2    99.3
#> # ℹ 91 more rows
#> # ℹ 8 more variables: ppp2170 <dbl>, ppp125 <dbl>, ppp250 <dbl>, ppp500 <dbl>,
#> #   percentile20 <dbl>, percentile40 <dbl>, percentile60 <dbl>,
#> #   percentile80 <dbl>
…
