…
- `percentile80`:

  Below 60th percentile poverty line

## Source

<https://www.povertyindex.org>

## Examples

``` r
  # Access Indonesia PPI table
  ppiIDN2020
#> # A tibble: 100 × 20
#>    score nl100 extreme nl150 nl200 ppp100 ppp190 ppp320 ppp550 ppp800 ppp1100
#>    <dbl> <dbl>   <dbl> <dbl> <dbl>  <dbl>  <dbl>  <dbl>  <dbl>  <dbl>   <dbl>
#>  1     1  88.4    82.2  96.7  98.8   41.7   88.6   98.1   99.7  100.0   100.0
#>  2     2  87.6    80.8  96.4  98.7   38.3   87.7   97.9   99.7  100.0   100.0
#>  3     3  86.7    79.3  96.2  98.6   35.0   86.8   97.8   99.7  100.0   100.0
#>  4     4  85.8    77.8  95.9  98.5   31.8   85.8   97.6   99.7  100.0   100.0
#>  5     5  84.9    76.2  95.7  98.4   28.7   84.7   97.4   99.6  100.0   100.0
#>  6     6  83.9    74.5  95.4  98.3   25.9   83.5   97.2   99.6  100.0   100.0
#>  7     7  82.8    72.8  95.1  98.2   23.2   82.3   97.0   99.6  100.0   100.0
#>  8     8  81.7    70.9  94.8  98.1   20.8   81.0   96.8   99.6  100.0   100.0
#>  9     9  80.6    69.0  94.4  97.9   18.5   79.6   96.5   99.5  100.0   100.0
#> 10    10  79.3    67.1  94.1  97.8   16.5   78.2   96.3   99.5  100.0   100.0
#> # ℹ 90 more rows
#> # ℹ 9 more variables: ppp1500 <dbl>, ppp2170 <dbl>, ppp125 <dbl>, ppp250 <dbl>,
#> #   ppp500 <dbl>, percentile20 <dbl>, percentile40 <dbl>, percentile60 <dbl>,
#> #   percentile80 <dbl>
…
