…
- `percentile80`:

  Below 80th percentile poverty line

## Source

<https://www.povertyindex.org>

## Examples

``` r
  # Access Mozambique PPI table
  ppiMOZ2024
#> # A tibble: 101 × 6
#>    score percentile20 percentile40 percentile50 percentile60 percentile80
#>    <dbl>        <dbl>        <dbl>        <dbl>        <dbl>        <dbl>
#>  1     0         88.7         98.0         99.5         99.9        100.0
#>  2     1         86.2         97.3         99.3         99.9        100.0
#>  3     2         83.3         96.4         99.2         99.9        100.0
#>  4     3         80.0         95.3         99.0         99.9        100.0
#>  5     4         76.2         93.7         98.7         99.9        100.0
#>  6     5         72.0         91.8         98.3         99.8        100.0
#>  7     6         67.3         89.2         97.9         99.8        100.0
#>  8     7         62.2         86.0         97.4         99.7        100.0
#>  9     8         56.8         82.1         96.7         99.7        100.0
#> 10     9         51.3         77.3         95.9         99.6        100.0
#> # ℹ 91 more rows
…
