…
- `percentile80`:

  NA

## Source

<https://www.povertyindex.org>

## Examples

``` r
  # Access Myanmar PPI table
  ppiMMR2019
#> # A tibble: 101 × 20
#>    score nl100 extreme nl150 nl200 ppp100 ppp190 ppp320 ppp550 ppp800 ppp1100
#>    <dbl> <dbl>   <dbl> <dbl> <dbl>  <dbl>  <dbl>  <dbl>  <dbl>  <dbl>   <dbl>
#>  1     0  95.2    84.1  98.6  99.6  11.6    80.9   93.7   99.2   99.6    99.9
#>  2     1  94.8    82.8  98.5  99.6  10.8    79.4   93.2   99.2   99.6    99.9
#>  3     2  94.4    81.5  98.4  99.6  10.00   77.8   92.7   99.1   99.6    99.9
#>  4     3  93.9    80.1  98.3  99.5   9.27   76.0   92.1   99.0   99.5    99.9
#>  5     4  93.4    78.5  98.1  99.5   8.59   74.2   91.5   98.9   99.5    99.8
#>  6     5  92.9    77.0  98.0  99.5   7.95   72.3   90.9   98.8   99.4    99.8
#>  7     6  92.3    75.3  97.8  99.4   7.36   70.3   90.2   98.7   99.4    99.8
#>  8     7  91.7    73.5  97.7  99.4   6.81   68.2   89.5   98.6   99.4    99.8
#>  9     8  91.1    71.7  97.5  99.3   6.30   66.1   88.7   98.5   99.3    99.8
#> 10     9  90.4    69.8  97.3  99.2   5.82   63.8   87.9   98.4   99.3    99.8
#> # ℹ 91 more rows
#> # ℹ 9 more variables: ppp1500 <dbl>, ppp2170 <dbl>, ppp125 <dbl>, ppp250 <dbl>,
#> #   ppp500 <dbl>, percentile20 <dbl>, percentile40 <dbl>, percentile60 <dbl>,
#> #   percentile80 <dbl>
…
