…
- `percentile80`:

  Below 60th percentile poverty line

## Source

<https://www.povertyindex.org>

## Examples

``` r
  # Access Mozambique PPI table
  ppiMOZ2019
#> # A tibble: 101 × 15
#>    score nl100 nl150 nl200 ppp190 ppp320 ppp550 ppp800 ppp1100 ppp1500 ppp2170
#>    <dbl> <dbl> <dbl> <dbl>  <dbl>  <dbl>  <dbl>  <dbl>   <dbl>   <dbl>   <dbl>
#>  1     0  91    96.9  98.6   95.4   98.6   99.8   99.9     100     100     100
#>  2     1  90.3  96.6  98.5   95     98.5   99.8   99.9     100     100     100
#>  3     2  89.5  96.3  98.4   94.6   98.4   99.7   99.9     100     100     100
#>  4     3  88.7  96    98.2   94.1   98.2   99.7   99.9     100     100     100
#>  5     4  87.8  95.6  98     93.6   98.1   99.7   99.9     100     100     100
#>  6     5  86.9  95.2  97.8   93.1   97.9   99.6   99.9     100     100     100
#>  7     6  85.9  94.8  97.7   92.5   97.7   99.6   99.9     100     100     100
#>  8     7  84.8  94.3  97.4   91.8   97.5   99.6   99.9     100     100     100
#>  9     8  83.6  93.8  97.2   91.2   97.3   99.5   99.9     100     100     100
#> 10     9  82.4  93.3  96.9   90.4   97     99.5   99.9     100     100     100
#> # ℹ 91 more rows
#> # ℹ 4 more variables: percentile20 <dbl>, percentile40 <dbl>,
#> #   percentile60 <dbl>, percentile80 <dbl>
…
