…
- `percentile80`:

  Below 60th percentile poverty line

## Source

<https://www.povertyindex.org>

## Examples

``` r
  # Access Malawi PPI table
  ppiMWI2020
#> # A tibble: 100 × 16
#>    score nl100 extreme nl150 nl200 ppp100 ppp190 ppp320 ppp550 ppp125 ppp250
#>    <dbl> <dbl>   <dbl> <dbl> <dbl>  <dbl>  <dbl>  <dbl>  <dbl>  <dbl>  <dbl>
#>  1     1  96.3    80.3  99.0  99.6   89.8   98.7   99.9  100.0   95.4   99.5
#>  2     2  95.9    78.6  98.9  99.6   88.8   98.6   99.9  100.0   94.9   99.5
#>  3     3  95.5    76.8  98.8  99.6   87.8   98.5   99.9  100.0   94.4   99.4
#>  4     4  95.1    74.8  98.7  99.6   86.6   98.4   99.9  100.0   93.9   99.4
#>  5     5  94.6    72.8  98.6  99.5   85.4   98.2   99.8  100.0   93.3   99.3
#>  6     6  94.1    70.7  98.5  99.5   84.1   98.1   99.8  100.0   92.7   99.3
#>  7     7  93.6    68.4  98.3  99.4   82.8   97.9   99.8  100.0   92.0   99.2
#>  8     8  93.0    66.1  98.2  99.4   81.3   97.7   99.8  100.0   91.3   99.2
#>  9     9  92.3    63.7  98.0  99.3   79.7   97.6   99.8  100.0   90.5   99.1
#> 10    10  91.6    61.2  97.9  99.3   78.0   97.3   99.8  100.0   89.6   99.0
#> # ℹ 90 more rows
#> # ℹ 5 more variables: ppp500 <dbl>, percentile20 <dbl>, percentile40 <dbl>,
#> #   percentile60 <dbl>, percentile80 <dbl>
…
