…
- `percentile80`:

  Below 80th percentile poverty line

## Source

<https://www.povertyindex.org>

## Examples

``` r
  # Access Peru PPI table
  ppiPER2024
#> # A tibble: 101 × 15
#>    score nlFood nl100 nl150 nl200 ppp215 ppp365 ppp685 ppp190 ppp320 ppp550
#>    <dbl>  <dbl> <dbl> <dbl> <dbl>  <dbl>  <dbl>  <dbl>  <dbl>  <dbl>  <dbl>
#>  1     0   67.0  37.9  87.7  95.5   16.1   45.4   80.6  10.7    36.1   69.2
#>  2     1   66.0  35.9  87.3  95.3   15.3   43.8   79.6  10.2    34.6   67.5
#>  3     2   64.9  33.9  86.8  95.1   14.5   42.3   78.5   9.69   33.2   65.8
#>  4     3   63.9  32.0  86.3  94.9   13.8   40.7   77.3   9.21   31.8   64.0
#>  5     4   62.8  30.1  85.8  94.7   13.1   39.1   76.2   8.75   30.5   62.2
#>  6     5   61.8  28.3  85.3  94.5   12.4   37.6   75.0   8.31   29.1   60.4
#>  7     6   60.7  26.6  84.8  94.3   11.8   36.1   73.7   7.89   27.8   58.6
#>  8     7   59.6  24.9  84.2  94.0   11.2   34.6   72.4   7.49   26.6   56.7
#>  9     8   58.5  23.4  83.6  93.8   10.6   33.2   71.1   7.11   25.4   54.8
#> 10     9   57.4  21.8  83.1  93.6   10.0   31.8   69.7   6.75   24.2   52.9
#> # ℹ 91 more rows
#> # ℹ 4 more variables: percentile20 <dbl>, percentile40 <dbl>,
#> #   percentile60 <dbl>, percentile80 <dbl>
…
