…
- `percentile80`:

  Below 80th percentile poverty line

## Source

<https://www.povertyindex.org>

## Examples

``` r
  # Access Vietnam PPI table
  ppiVNM2023
#> # A tibble: 101 × 5
#>    score percentile20 percentile40 percentile60 percentile80
#>    <dbl>        <dbl>        <dbl>        <dbl>        <dbl>
#>  1     0        100.0        100.0        100.0        100.0
#>  2     1        100.0        100.0        100.0        100.0
#>  3     2        100.0        100.0        100.0        100.0
#>  4     3        100.0        100.0        100.0        100.0
#>  5     4        100.0        100.0        100.0        100.0
#>  6     5        100.0        100.0        100.0        100.0
#>  7     6        100.0        100.0        100.0        100.0
#>  8     7        100.0        100.0        100.0        100.0
#>  9     8        100.0        100.0        100.0        100.0
#> 10     9        100.0        100.0        100.0        100.0
#> # ℹ 91 more rows
…
