Lookup Tables to Generate Poverty Likelihoods and Rates using the Poverty Probability Index (PPI) • ppitables
…
PPI for Zambia based on Zambia’s 2015 Living Conditions Monitoring Survey (LCMS) using legacy poverty definitions

2017

ppiZMB2017_a

PPI for Zambia based on Zambia’s 2015 Living Conditions Monitoring Survey (LCMS) using new PPI calculation approach

2017

This list of available PPI country tables can be retrieved in R using the find_table() function. View the complete list using the following command in R:

find_table()
#> # A tibble: 91 × 7
#>    region                          country surve…¹ relea…² descr…³ type  filen…⁴
#>    <chr>                           <chr>     <int>   <int> <chr>   <chr> <chr>  
#>  1 Asia                            Afghan…    2007    2012 PPI fo… sps   ppiAFG…
#>  2 Africa                          Angola     2008    2015 PPI fo… sps   ppiAGO…
#>  3 Asia                            Bangla…    2010    2013 PPI fo… sps   ppiBEN…
#>  4 Africa                          Benin      2010    2012 PPI fo… sps   ppiBGD…
#>  5 Latin American and the Carribe… Bolivia    2013    2015 PPI fo… sps   ppiBOL…
#>  6 Latin American and the Carribe… Brazil     2008    2010 PPI fo… sps   ppiBRA…
#>  7 Africa                          Burkin…    2003    2011 PPI fo… sps   ppiBFA…
#>  8 Africa                          Burkin…    2014    2017 PPI fo… sps   ppiBFA…
#>  9 Africa                          Burkin…    2014    2017 PPI fo… ipa   ppiBFA…
#> 10 Asia                            Cambod…    2011    2015 PPI fo… sps   ppiKHM…
#> # … with 81 more rows, and abbreviated variable names ¹​survey_year,
#> #   ²​release_year, ³​description, ⁴​filename

View the list of PPI country tables for Africa using the following command in R:

find_table(region = "Africa")
#> # A tibble: 39 × 7
#>    region country       survey_year release_year description       type  filen…¹
#>    <chr>  <chr>               <int>        <int> <chr>             <chr> <chr>  
#>  1 Africa Angola               2008         2015 PPI for Angola b… sps   ppiAGO…
#>  2 Africa Benin                2010         2012 PPI for Banglade… sps   ppiBGD…
#>  3 Africa Burkina Faso         2003         2011 PPI for Burkina … sps   ppiBFA…
#>  4 Africa Burkina Faso         2014         2017 PPI for Burkina … sps   ppiBFA…
#>  5 Africa Burkina Faso         2014         2017 PPI for Burkina … ipa   ppiBFA…
#>  6 Africa Cameroon             2007         2013 PPI for Cameroon… sps   ppiCMR…
#>  7 Africa Cote d'Ivoire        2008         2013 PPI for Ivory Co… sps   ppiCIV…
#>  8 Africa Cote d'Ivoire        2015         2018 PPI for Ivory Co… ipa   ppiCIV…
#>  9 Africa Ethiopia             2010         2016 PPI for Ethiopia… sps   ppiETH…
#> 10 Africa Ghana                2012         2015 PPI for Ghana ba… sps   ppiGHA…
#> # … with 29 more rows, and abbreviated variable name ¹​filename
…
To extract the actual PPI tables, the get_table() function can be used. The get_table() function wraps around the find_table() function to make a search for a specific PPI table and then extracts the table/s and puts them together into a tidy data frame.

For example, to get the actual PPI tables for all countries with PPI tables, the following command can be used in R:

get_table()
#> # A tibble: 93,088 × 7
#>    country     release_year filename   type  score poverty_definition   ppi
#>    <chr>       <chr>        <chr>      <chr> <dbl> <chr>              <dbl>
#>  1 Afghanistan 2012         ppiAFG2012 sps       0 nl                   100
#>  2 Afghanistan 2012         ppiAFG2012 sps       0 nu150                100
#>  3 Afghanistan 2012         ppiAFG2012 sps       0 nu200                100
#>  4 Afghanistan 2012         ppiAFG2012 sps       0 extreme              100
#>  5 Afghanistan 2012         ppiAFG2012 sps       0 ppp125               100
#>  6 Afghanistan 2012         ppiAFG2012 sps       0 ppp250               100
#>  7 Afghanistan 2012         ppiAFG2012 sps       1 nl                   100
#>  8 Afghanistan 2012         ppiAFG2012 sps       1 nu150                100
#>  9 Afghanistan 2012         ppiAFG2012 sps       1 nu200                100
#> 10 Afghanistan 2012         ppiAFG2012 sps       1 extreme              100
#> # … with 93,078 more rows

To get the actual PPI tables for all countries with PPI tables in Africa, the following command can be used in R:

get_table(region = "Africa")
#> # A tibble: 44,122 × 7
#>    country release_year filename   type  score poverty_definition   ppi
#>    <chr>   <chr>        <chr>      <chr> <dbl> <chr>              <dbl>
#>  1 Angola  2015         ppiAGO2015 sps       0 nl100              100  
#>  2 Angola  2015         ppiAGO2015 sps       0 nl150              100  
#>  3 Angola  2015         ppiAGO2015 sps       0 nl200              100  
#>  4 Angola  2015         ppiAGO2015 sps       0 half100             86.5
#>  5 Angola  2015         ppiAGO2015 sps       0 ppp125             100  
#>  6 Angola  2015         ppiAGO2015 sps       0 ppp200             100  
#>  7 Angola  2015         ppiAGO2015 sps       0 ppp250             100  
#>  8 Angola  2015         ppiAGO2015 sps       0 ppp500             100  
#>  9 Angola  2015         ppiAGO2015 sps       1 nl100              100  
#> 10 Angola  2015         ppiAGO2015 sps       1 nl150              100  
#> # … with 44,112 more rows
…
